{
    "count": 87,
    "next": "https://swapi.co/api/people/?page=8&format=json",
    "previous": "https://swapi.co/api/people/?page=6&format=json",
    "results": [
        {
            "name": "Luminara Unduli",
            "height": "170",
            "mass": "56.2",
            "hair_color": "black",
            "skin_color": "yellow",
            "eye_color": "blue",
            "birth_year": "58BBY",
            "gender": "female",
            "homeworld": "https://swapi.co/api/planets/51/",
            "films": [
                "https://swapi.co/api/films/5/",
                "https://swapi.co/api/films/6/"
            ],
            "species": [
                "https://swapi.co/api/species/29/"
            ],
            "vehicles": [],
            "starships": [],
            "created": "2014-12-20T16:45:53.668000Z",
            "edited": "2014-12-20T21:17:50.455000Z",
            "url": "https://swapi.co/api/people/64/"
        },
        {
            "name": "Barriss Offee",
            "height": "166",
            "mass": "50",
            "hair_color": "black",
            "skin_color": "yellow",
            "eye_color": "blue",
            "birth_year": "40BBY",
            "gender": "female",
            "homeworld": "https://swapi.co/api/planets/51/",
            "films": [
                "https://swapi.co/api/films/5/"
            ],
            "species": [
                "https://swapi.co/api/species/29/"
            ],
            "vehicles": [],
            "starships": [],
            "created": "2014-12-20T16:46:40.440000Z",
            "edited": "2014-12-20T21:17:50.457000Z",
            "url": "https://swapi.co/api/people/65/"
        },
        {
            "name": "Dormé",
            "height": "165",
            "mass": "unknown",
            "hair_color": "brown",
            "skin_color": "light",
            "eye_color": "brown",
            "birth_year": "unknown",
            "gender": "female",
            "homeworld": "https://swapi.co/api/planets/8/",
            "films": [
                "https://swapi.co/api/films/5/"
            ],
            "species": [
                "https://swapi.co/api/species/1/"
            ],
            "vehicles": [],
            "starships": [],
            "created": "2014-12-20T16:49:14.640000Z",
            "edited": "2014-12-20T21:17:50.460000Z",
            "url": "https://swapi.co/api/people/66/"
        },
        {
            "name": "Dooku",
            "height": "193",
            "mass": "80",
            "hair_color": "white",
            "skin_color": "fair",
            "eye_color": "brown",
            "birth_year": "102BBY",
            "gender": "male",
            "homeworld": "https://swapi.co/api/planets/52/",
            "films": [
                "https://swapi.co/api/films/5/",
                "https://swapi.co/api/films/6/"
            ],
            "species": [
                "https://swapi.co/api/species/1/"
            ],
            "vehicles": [
                "https://swapi.co/api/vehicles/55/"
            ],
            "starships": [],
            "created": "2014-12-20T16:52:14.726000Z",
            "edited": "2014-12-20T21:17:50.462000Z",
            "url": "https://swapi.co/api/people/67/"
        },
        {
            "name": "Bail Prestor Organa",
            "height": "191",
            "mass": "unknown",
            "hair_color": "black",
            "skin_color": "tan",
            "eye_color": "brown",
            "birth_year": "67BBY",
            "gender": "male",
            "homeworld": "https://swapi.co/api/planets/2/",
            "films": [
                "https://swapi.co/api/films/5/",
                "https://swapi.co/api/films/6/"
            ],
            "species": [
                "https://swapi.co/api/species/1/"
            ],
            "vehicles": [],
            "starships": [],
            "created": "2014-12-20T16:53:08.575000Z",
            "edited": "2014-12-20T21:17:50.463000Z",
            "url": "https://swapi.co/api/people/68/"
        },
        {
            "name": "Jango Fett",
            "height": "183",
            "mass": "79",
            "hair_color": "black",
            "skin_color": "tan",
            "eye_color": "brown",
            "birth_year": "66BBY",
            "gender": "male",
            "homeworld": "https://swapi.co/api/planets/53/",
            "films": [
                "https://swapi.co/api/films/5/"
            ],
            "species": [
                "https://swapi.co/api/species/1/"
            ],
            "vehicles": [],
            "starships": [],
            "created": "2014-12-20T16:54:41.620000Z",
            "edited": "2014-12-20T21:17:50.465000Z",
            "url": "https://swapi.co/api/people/69/"
        },
        {
            "name": "Zam Wesell",
            "height": "168",
            "mass": "55",
            "hair_color": "blonde",
            "skin_color": "fair, green, yellow",
            "eye_color": "yellow",
            "birth_year": "unknown",
            "gender": "female",
            "homeworld": "https://swapi.co/api/planets/54/",
            "films": [
                "https://swapi.co/api/films/5/"
            ],
            "species": [
                "https://swapi.co/api/species/30/"
            ],
            "vehicles": [
                "https://swapi.co/api/vehicles/45/"
            ],
            "starships": [],
            "created": "2014-12-20T16:57:44.471000Z",
            "edited": "2014-12-20T21:17:50.468000Z",
            "url": "https://swapi.co/api/people/70/"
        },
        {
            "name": "Dexter Jettster",
            "height": "198",
            "mass": "102",
            "hair_color": "none",
            "skin_color": "brown",
            "eye_color": "yellow",
            "birth_year": "unknown",
            "gender": "male",
            "homeworld": "https://swapi.co/api/planets/55/",
            "films": [
                "https://swapi.co/api/films/5/"
            ],
            "species": [
                "https://swapi.co/api/species/31/"
            ],
            "vehicles": [],
            "starships": [],
            "created": "2014-12-20T17:28:27.248000Z",
            "edited": "2014-12-20T21:17:50.470000Z",
            "url": "https://swapi.co/api/people/71/"
        },
        {
            "name": "Lama Su",
            "height": "229",
            "mass": "88",
            "hair_color": "none",
            "skin_color": "grey",
            "eye_color": "black",
            "birth_year": "unknown",
            "gender": "male",
            "homeworld": "https://swapi.co/api/planets/10/",
            "films": [
                "https://swapi.co/api/films/5/"
            ],
            "species": [
                "https://swapi.co/api/species/32/"
            ],
            "vehicles": [],
            "starships": [],
            "created": "2014-12-20T17:30:50.416000Z",
            "edited": "2014-12-20T21:17:50.473000Z",
            "url": "https://swapi.co/api/people/72/"
        },
        {
            "name": "Taun We",
            "height": "213",
            "mass": "unknown",
            "hair_color": "none",
            "skin_color": "grey",
            "eye_color": "black",
            "birth_year": "unknown",
            "gender": "female",
            "homeworld": "https://swapi.co/api/planets/10/",
            "films": [
                "https://swapi.co/api/films/5/"
            ],
            "species": [
                "https://swapi.co/api/species/32/"
            ],
            "vehicles": [],
            "starships": [],
            "created": "2014-12-20T17:31:21.195000Z",
            "edited": "2014-12-20T21:17:50.474000Z",
            "url": "https://swapi.co/api/people/73/"
        }
    ]
}