{
    "count": 87,
    "next": "https://swapi.co/api/people/?page=7&format=json",
    "previous": "https://swapi.co/api/people/?page=5&format=json",
    "results": [
        {
            "name": "Eeth Koth",
            "height": "171",
            "mass": "unknown",
            "hair_color": "black",
            "skin_color": "brown",
            "eye_color": "brown",
            "birth_year": "unknown",
            "gender": "male",
            "homeworld": "https://swapi.co/api/planets/45/",
            "films": [
                "https://swapi.co/api/films/4/",
                "https://swapi.co/api/films/6/"
            ],
            "species": [
                "https://swapi.co/api/species/22/"
            ],
            "vehicles": [],
            "starships": [],
            "created": "2014-12-20T10:26:47.902000Z",
            "edited": "2014-12-20T21:17:50.427000Z",
            "url": "https://swapi.co/api/people/54/"
        },
        {
            "name": "Adi Gallia",
            "height": "184",
            "mass": "50",
            "hair_color": "none",
            "skin_color": "dark",
            "eye_color": "blue",
            "birth_year": "unknown",
            "gender": "female",
            "homeworld": "https://swapi.co/api/planets/9/",
            "films": [
                "https://swapi.co/api/films/4/",
                "https://swapi.co/api/films/6/"
            ],
            "species": [
                "https://swapi.co/api/species/23/"
            ],
            "vehicles": [],
            "starships": [],
            "created": "2014-12-20T10:29:11.661000Z",
            "edited": "2014-12-20T21:17:50.432000Z",
            "url": "https://swapi.co/api/people/55/"
        },
        {
            "name": "Saesee Tiin",
            "height": "188",
            "mass": "unknown",
            "hair_color": "none",
            "skin_color": "pale",
            "eye_color": "orange",
            "birth_year": "unknown",
            "gender": "male",
            "homeworld": "https://swapi.co/api/planets/47/",
            "films": [
                "https://swapi.co/api/films/4/",
                "https://swapi.co/api/films/6/"
            ],
            "species": [
                "https://swapi.co/api/species/24/"
            ],
            "vehicles": [],
            "starships": [],
            "created": "2014-12-20T10:32:11.669000Z",
            "edited": "2014-12-20T21:17:50.434000Z",
            "url": "https://swapi.co/api/people/56/"
        },
        {
            "name": "Yarael Poof",
            "height": "264",
            "mass": "unknown",
            "hair_color": "none",
            "skin_color": "white",
            "eye_color": "yellow",
            "birth_year": "unknown",
            "gender": "male",
            "homeworld": "https://swapi.co/api/planets/48/",
            "films": [
                "https://swapi.co/api/films/4/"
            ],
            "species": [
                "https://swapi.co/api/species/25/"
            ],
            "vehicles": [],
            "starships": [],
            "created": "2014-12-20T10:34:48.725000Z",
            "edited": "2014-12-20T21:17:50.437000Z",
            "url": "https://swapi.co/api/people/57/"
        },
        {
            "name": "Plo Koon",
            "height": "188",
            "mass": "80",
            "hair_color": "none",
            "skin_color": "orange",
            "eye_color": "black",
            "birth_year": "22BBY",
            "gender": "male",
            "homeworld": "https://swapi.co/api/planets/49/",
            "films": [
                "https://swapi.co/api/films/5/",
                "https://swapi.co/api/films/4/",
                "https://swapi.co/api/films/6/"
            ],
            "species": [
                "https://swapi.co/api/species/26/"
            ],
            "vehicles": [],
            "starships": [
                "https://swapi.co/api/starships/48/"
            ],
            "created": "2014-12-20T10:49:19.859000Z",
            "edited": "2014-12-20T21:17:50.439000Z",
            "url": "https://swapi.co/api/people/58/"
        },
        {
            "name": "Mas Amedda",
            "height": "196",
            "mass": "unknown",
            "hair_color": "none",
            "skin_color": "blue",
            "eye_color": "blue",
            "birth_year": "unknown",
            "gender": "male",
            "homeworld": "https://swapi.co/api/planets/50/",
            "films": [
                "https://swapi.co/api/films/5/",
                "https://swapi.co/api/films/4/"
            ],
            "species": [
                "https://swapi.co/api/species/27/"
            ],
            "vehicles": [],
            "starships": [],
            "created": "2014-12-20T10:53:26.457000Z",
            "edited": "2014-12-20T21:17:50.442000Z",
            "url": "https://swapi.co/api/people/59/"
        },
        {
            "name": "Gregar Typho",
            "height": "185",
            "mass": "85",
            "hair_color": "black",
            "skin_color": "dark",
            "eye_color": "brown",
            "birth_year": "unknown",
            "gender": "male",
            "homeworld": "https://swapi.co/api/planets/8/",
            "films": [
                "https://swapi.co/api/films/5/"
            ],
            "species": [
                "https://swapi.co/api/species/1/"
            ],
            "vehicles": [],
            "starships": [
                "https://swapi.co/api/starships/39/"
            ],
            "created": "2014-12-20T11:10:10.381000Z",
            "edited": "2014-12-20T21:17:50.445000Z",
            "url": "https://swapi.co/api/people/60/"
        },
        {
            "name": "Cordé",
            "height": "157",
            "mass": "unknown",
            "hair_color": "brown",
            "skin_color": "light",
            "eye_color": "brown",
            "birth_year": "unknown",
            "gender": "female",
            "homeworld": "https://swapi.co/api/planets/8/",
            "films": [
                "https://swapi.co/api/films/5/"
            ],
            "species": [
                "https://swapi.co/api/species/1/"
            ],
            "vehicles": [],
            "starships": [],
            "created": "2014-12-20T11:11:39.630000Z",
            "edited": "2014-12-20T21:17:50.449000Z",
            "url": "https://swapi.co/api/people/61/"
        },
        {
            "name": "Cliegg Lars",
            "height": "183",
            "mass": "unknown",
            "hair_color": "brown",
            "skin_color": "fair",
            "eye_color": "blue",
            "birth_year": "82BBY",
            "gender": "male",
            "homeworld": "https://swapi.co/api/planets/1/",
            "films": [
                "https://swapi.co/api/films/5/"
            ],
            "species": [
                "https://swapi.co/api/species/1/"
            ],
            "vehicles": [],
            "starships": [],
            "created": "2014-12-20T15:59:03.958000Z",
            "edited": "2014-12-20T21:17:50.451000Z",
            "url": "https://swapi.co/api/people/62/"
        },
        {
            "name": "Poggle the Lesser",
            "height": "183",
            "mass": "80",
            "hair_color": "none",
            "skin_color": "green",
            "eye_color": "yellow",
            "birth_year": "unknown",
            "gender": "male",
            "homeworld": "https://swapi.co/api/planets/11/",
            "films": [
                "https://swapi.co/api/films/5/",
                "https://swapi.co/api/films/6/"
            ],
            "species": [
                "https://swapi.co/api/species/28/"
            ],
            "vehicles": [],
            "starships": [],
            "created": "2014-12-20T16:40:43.977000Z",
            "edited": "2014-12-20T21:17:50.453000Z",
            "url": "https://swapi.co/api/people/63/"
        }
    ]
}